<?xml version="1.0" encoding="UTF-8"?>
<svg width="26px" height="30px" viewBox="0 0 26 30" version="1.1" xmlns="http://www.w3.org/2000/svg" xmlns:xlink="http://www.w3.org/1999/xlink">
    <!-- Generator: Sketch 54.1 (76490) - https://sketchapp.com -->
    <title>Data Center Services, Security and Compliance</title>
    <desc>Created with Sketch.</desc>
    <g id="Page-1" stroke="none" stroke-width="1" fill="none" fill-rule="evenodd">
        <g id="Services" transform="translate(-797.000000, -2080.000000)">
            <g id="We-provide-following" transform="translate(280.000000, 1691.000000)">
                <g id="Data-Center-Services" transform="translate(480.000000, 348.000000)">
                    <g id="Data-Center-Services,-Security-and-Compliance" transform="translate(35.000000, 41.000000)">
                        <rect id="Rectangle" x="0" y="0" width="30" height="30"></rect>
                        <path d="M27.1985029,7.74288553 C27.342213,15.2727003 27.5388166,25.5839059 14.9741555,29.9401208 C14.856393,29.9800403 14.7356365,30 14.61488,30 C14.4951215,30 14.3743651,29.9800403 14.2576005,29.9401208 C1.69293947,25.5849038 1.888545,15.2617224 2.03225518,7.72292578 C2.04722499,6.9225399 2.0621948,6.16606547 2.0621948,5.43354274 C2.0621948,4.82876239 2.55320459,4.3377526 3.15798494,4.3377526 C7.62198248,4.3377526 11.0191315,3.05533882 13.8504217,0.301891645 C14.2645865,-0.101295256 14.9661716,-0.100297268 15.3793384,0.302889632 C18.2116265,3.05533882 21.6087756,4.3377526 26.0717751,4.3377526 C26.6765555,4.3377526 27.1685632,4.82876239 27.1685632,5.43354274 C27.1685632,6.17205339 27.1825351,6.93351776 27.1985029,7.74088955 L27.1505995,7.74388351 L27.1985029,7.74288553 Z M14.61488,27.7405566 C25.3143027,23.8454118 25.1506328,15.3126198 25.0059246,7.78280502 C24.9979407,7.34668454 24.9899568,6.9225399 24.9849669,6.50637917 C20.7904259,6.3217515 17.4940736,5.07227131 14.61488,2.57630488 C11.7356864,5.07227131 8.43933414,6.3217515 4.24678917,6.50637917 L4.22483345,7.78380301 C4.08012528,15.3136178 3.91645535,23.8454118 14.61488,27.7405566 Z M18.9596181,11.0115936 C19.2540243,11.0115936 19.5364548,11.1253641 19.7350543,11.3239636 C19.9416376,11.530547 20.0564062,11.8059915 20.0564062,12.0993998 C20.0574042,12.3908121 19.9426356,12.6672546 19.7350543,12.874836 L13.9427355,18.6671547 C13.7321602,18.8777301 13.4497298,18.9825188 13.1663013,18.9825188 C12.8848689,18.9825188 12.6024385,18.8777301 12.3918631,18.6671547 L9.49570378,15.7709954 C9.2881224,15.564412 9.17335385,15.2889675 9.17335385,14.9965572 C9.17335385,14.7031489 9.2881224,14.4277044 9.49570378,14.220123 C9.90887055,13.8069562 10.6324114,13.8069562 11.0455782,14.221121 L13.1663013,16.3418442 L18.1851799,11.3239636 C18.3827814,11.1263621 18.6652118,11.0115936 18.9586201,11.0115936 L18.9596181,11.0115936 Z" id="Combined-Shape" fill="#ED1C24"></path>
                    </g>
                </g>
            </g>
        </g>
    </g>
</svg>