<?xml version="1.0" encoding="UTF-8"?>
<svg width="30px" height="28px" viewBox="0 0 30 28" version="1.1" xmlns="http://www.w3.org/2000/svg" xmlns:xlink="http://www.w3.org/1999/xlink">
    <!-- Generator: Sketch 54.1 (76490) - https://sketchapp.com -->
    <title>ERP Implementation</title>
    <desc>Created with Sketch.</desc>
    <defs>
        <polygon id="path-1" points="0.6648 0.281 29.2666125 0.281 29.2666125 15.2299 0.6648 15.2299"></polygon>
        <polygon id="path-3" points="8.83992307e-05 0.632375298 28.4666543 0.632375298 28.4666543 16.6323753 8.83992307e-05 16.6323753"></polygon>
    </defs>
    <g id="Page-1" stroke="none" stroke-width="1" fill="none" fill-rule="evenodd">
        <g id="Services" transform="translate(-795.000000, -1919.000000)">
            <g id="ERP-Implementation" transform="translate(760.000000, 1877.000000)">
                <g transform="translate(35.000000, 41.000000)">
                    <g id="Group-3" transform="translate(0.000000, 0.718700)">
                        <mask id="mask-2" fill="white">
                            <use xlink:href="#path-1"></use>
                        </mask>
                        <g id="Clip-2"></g>
                        <path d="M29.0838,3.1689 C28.9188,2.9149 28.6658,2.7389 28.3708,2.6759 C28.0758,2.6109 27.7718,2.6669 27.5158,2.8329 C27.2618,2.9959 27.0868,3.2499 27.0228,3.5479 L26.2968,6.9369 C23.8058,2.8269 19.2958,0.2809 14.4798,0.2809 C6.8618,0.2809 0.6648,6.4789 0.6648,14.0959 C0.6648,14.7209 1.1738,15.2299 1.7998,15.2299 C2.4248,15.2299 2.9338,14.7209 2.9338,14.0959 C2.9338,7.7299 8.1128,2.5499 14.4798,2.5499 C18.5218,2.5499 22.2978,4.6899 24.3768,8.1459 L21.0248,7.4259 C20.4098,7.3059 19.8108,7.6919 19.6808,8.2979 C19.6158,8.5949 19.6718,8.8989 19.8368,9.1519 C19.9998,9.4059 20.2538,9.5819 20.5508,9.6469 L26.5988,10.9419 C26.7068,10.9639 26.8208,10.9719 26.9298,10.9619 C27.1168,10.9469 27.2978,10.8849 27.4498,10.7849 C27.7058,10.6209 27.8818,10.3669 27.9448,10.0699 L29.2408,4.0229 C29.3048,3.7269 29.2488,3.4239 29.0838,3.1689" id="Fill-1" fill="#ED1C24" mask="url(#mask-2)"></path>
                    </g>
                    <g id="Group-6" transform="translate(0.000000, 12.718700)">
                        <mask id="mask-4" fill="white">
                            <use xlink:href="#path-3"></use>
                        </mask>
                        <g id="Clip-5"></g>
                        <path d="M27.2879,0.6333 C26.9849,0.6433 26.7049,0.7703 26.4969,0.9923 C26.2899,1.2133 26.1809,1.5023 26.1899,1.8043 C26.2929,4.8863 25.1879,7.8243 23.0809,10.0753 C20.9729,12.3273 18.1139,13.6243 15.0329,13.7253 C10.9089,13.8633 7.1489,11.8793 4.9349,8.4253 L8.4179,9.3593 C8.7099,9.4363 9.0149,9.3963 9.2759,9.2463 C9.5389,9.0943 9.7269,8.8493 9.8049,8.5573 C9.8839,8.2653 9.8439,7.9593 9.6909,7.6963 C9.5399,7.4333 9.2959,7.2453 9.0039,7.1673 L3.0289,5.5653 C2.7379,5.4893 2.4269,5.5303 2.1689,5.6793 C1.9109,5.8283 1.7179,6.0793 1.6409,6.3673 L0.0389,12.3413 C-0.1231,12.9453 0.2369,13.5683 0.8419,13.7313 C1.4449,13.8883 2.0679,13.5303 2.2299,12.9293 L3.0859,9.7413 C5.6589,13.6873 9.9409,16.0003 14.6429,16.0003 C14.7979,16.0003 14.9519,15.9973 15.1069,15.9923 C18.7949,15.8703 22.2149,14.3203 24.7369,11.6263 C27.2599,8.9313 28.5809,5.4163 28.4589,1.7293 C28.4489,1.4253 28.3209,1.1443 28.0989,0.9363 C27.8709,0.7263 27.5659,0.6213 27.2879,0.6333" id="Fill-4" fill="#ED1C24" mask="url(#mask-4)"></path>
                    </g>
                    <path d="M17.8738,14.8671 C17.8738,16.6391 16.4328,18.0801 14.6598,18.0801 C12.8888,18.0801 11.4468,16.6391 11.4468,14.8671 C11.4468,13.0951 12.8888,11.6541 14.6598,11.6541 C16.4328,11.6541 17.8738,13.0951 17.8738,14.8671 M14.6598,9.3311 C11.6068,9.3311 9.1238,11.8141 9.1238,14.8671 C9.1238,17.9201 11.6068,20.4031 14.6598,20.4031 C17.7128,20.4031 20.1958,17.9201 20.1958,14.8671 C20.1958,11.8141 17.7128,9.3311 14.6598,9.3311" id="Fill-7" fill="#ED1C24"></path>
                </g>
            </g>
        </g>
    </g>
</svg>