<?xml version="1.0" encoding="UTF-8"?>
<svg width="36px" height="36px" viewBox="0 0 36 36" version="1.1" xmlns="http://www.w3.org/2000/svg" xmlns:xlink="http://www.w3.org/1999/xlink">
    <!-- Generator: Sketch 57 (83077) - https://sketch.com -->
    <title>twitter-icon-hover</title>
    <desc>Created with Sketch.</desc>
    <g id="twitter-icon-hover" stroke="none" stroke-width="1" fill="none" fill-rule="evenodd">
        <g id="twitter-icon">
            <rect id="Rectangle" x="0" y="0" width="36" height="36"></rect>
            <path d="M28.7708011,11.4816591 C27.971626,11.8360354 27.1119477,12.0757214 26.2103825,12.1827657 C27.1308965,11.6312551 27.837322,10.7586118 28.1707549,9.71709119 C27.3094144,10.2280446 26.3549919,10.5987103 25.3400662,10.798504 C24.5269288,9.93250943 23.3683909,9.39130435 22.0855221,9.39130435 C19.6241693,9.39130435 17.6278938,11.3875798 17.6278938,13.8489327 C17.6278938,14.1983224 17.6674536,14.538404 17.7439138,14.8648557 C14.039252,14.6790242 10.7544563,12.9044833 8.55572759,10.2067688 C8.17209696,10.8649912 7.95202462,11.6312551 7.95202462,12.4480492 C7.95202462,13.994207 8.73956445,15.3591874 9.93500269,16.1583624 C9.20464179,16.1354244 8.51683263,15.9349658 7.91612159,15.6002032 C7.91578915,15.619152 7.91578915,15.6381008 7.91578915,15.6567172 C7.91578915,17.816551 9.45297114,19.6180192 11.4917984,20.0272474 C11.1181408,20.1296376 10.7235398,20.1838245 10.317636,20.1838245 C10.0297468,20.1838245 9.7508334,20.1562324 9.47890112,20.1043725 C10.0460362,21.8749242 11.6919246,23.1637768 13.6429888,23.2000123 C12.1171097,24.395783 10.1952997,25.1081924 8.10627472,25.1081924 C7.74724432,25.1081924 7.39153828,25.0872489 7.04347826,25.0456945 C9.01515352,26.3109442 11.3588242,27.0486187 13.8760262,27.0486187 C22.0752166,27.0486187 26.5591073,20.2562955 26.5591073,14.3652051 C26.5591073,14.17206 26.5547857,13.9795798 26.5461424,13.7887618 C27.4177884,13.1604586 28.1734144,12.3755783 28.7708011,11.4816591 L28.7708011,11.4816591 Z" id="Shape" fill="#F6423F" fill-rule="nonzero"></path>
        </g>
    </g>
</svg>